simulation/qsim/EDA1.msim.vcd
$comment
	File created using the following command:
		vcd file EDA1.msim.vcd -direction
$end
$date
	Tue Nov 28 14:50:42 2017
$end
$version
	ModelSim Version 10.1d
$end
$timescale
	1ps
$end
$scope module FINAL2_vlg_vec_tst $end
$var reg 1 ! DIP1 $end
$var reg 1 " DIP2 $end
$var reg 1 # M0 $end
$var reg 1 $ M1 $end
$var reg 1 % M2 $end
$var reg 1 & N0 $end
$var reg 1 ' N1 $end
$var reg 1 ( N2 $end
$var wire 1 ) DIG0 $end
$var wire 1 * DIG1 $end
$var wire 1 + DIG2 $end
$var wire 1 , DIG3 $end
$var wire 1 - LM $end
$var wire 1 . LN $end
$var wire 1 / Y [6] $end
$var wire 1 0 Y [5] $end
$var wire 1 1 Y [4] $end
$var wire 1 2 Y [3] $end
$var wire 1 3 Y [2] $end
$var wire 1 4 Y [1] $end
$var wire 1 5 Y [0] $end
$var wire 1 6 sampler $end
$scope module i1 $end
$var wire 1 7 gnd $end
$var wire 1 8 vcc $end
$var wire 1 9 unknown $end
$var tri1 1 : devclrn $end
$var tri1 1 ; devpor $end
$var tri1 1 < devoe $end
$var wire 1 = inst7|inst2~0_combout $end
$var wire 1 > inst9|inst2|4~combout $end
$var wire 1 ? DIP1~combout $end
$var wire 1 @ DIP2~combout $end
$var wire 1 A inst4|inst2~combout $end
$var wire 1 B inst4|inst3~0_combout $end
$var wire 1 C N0~combout $end
$var wire 1 D N1~combout $end
$var wire 1 E inst7|inst13~combout $end
$var wire 1 F M0~combout $end
$var wire 1 G inst7|inst30|inst0|inst3~combout $end
$var wire 1 H N2~combout $end
$var wire 1 I inst7|inst6~combout $end
$var wire 1 J inst7|inst9~combout $end
$var wire 1 K inst7|inst30|inst1|inst4~0_combout $end
$var wire 1 L M1~combout $end
$var wire 1 M M2~combout $end
$var wire 1 N inst7|inst12~0_combout $end
$var wire 1 O inst7|inst30|inst3|inst1~combout $end
$var wire 1 P inst10~combout $end
$var wire 1 Q inst4|inst3~1_combout $end
$var wire 1 R inst5~combout $end
$var wire 1 S inst6~combout $end
$var wire 1 T inst9|inst3|6~4_combout $end
$var wire 1 U inst7|inst30|inst1|inst1~combout $end
$var wire 1 V inst7|inst30|inst0|inst1~combout $end
$var wire 1 W inst7|inst27~2_combout $end
$var wire 1 X inst9|inst2|6~0_combout $end
$var wire 1 Y inst9|inst2|6~1_combout $end
$var wire 1 Z inst7|inst30|inst2|inst4~0_combout $end
$var wire 1 [ inst9|inst3|6~2_combout $end
$var wire 1 \ inst9|inst3|6~3_combout $end
$var wire 1 ] inst9|inst1|6~4_combout $end
$var wire 1 ^ inst9|inst1|6~5_combout $end
$var wire 1 _ inst9|inst1|6~6_combout $end
$var wire 1 ` inst9|inst6|72~combout $end
$var wire 1 a inst9|inst14~combout $end
$var wire 1 b inst9|inst6|66~0_combout $end
$var wire 1 c inst9|inst15~combout $end
$var wire 1 d inst9|inst2|4~2_combout $end
$var wire 1 e inst9|inst55~combout $end
$var wire 1 f inst9|inst56~combout $end
$var wire 1 g inst9|inst6|70~combout $end
$var wire 1 h inst9|inst18~combout $end
$var wire 1 i inst9|inst6|68~0_combout $end
$var wire 1 j inst9|inst19~combout $end
$var wire 1 k inst9|inst6|69~0_combout $end
$var wire 1 l inst9|inst20~combout $end
$upscope $end
$upscope $end
$enddefinitions $end
#0
$dumpvars
0!
0"
0#
0$
0%
0&
0'
0(
x)
x*
x+
x,
x-
x.
x5
x4
x3
x2
x1
x0
x/
x6
07
18
x9
1:
1;
1<
x=
x>
0?
0@
xA
xB
0C
0D
xE
0F
xG
0H
xI
xJ
xK
0L
0M
xN
xO
xP
xQ
xR
xS
xT
xU
xV
xW
xX
xY
xZ
x[
x\
x]
x^
x_
x`
xa
xb
xc
xd
xe
xf
xg
xh
xi
xj
xk
xl
$end
#6489
0Q
#6495
0d
#6532
0N
#6554
0J
#6637
0A
#6670
0E
#6729
0G
#6734
0=
0X
#6947
0P
0>
#6973
0I
#7008
0R
#7034
0\
#7078
0S
#7168
0B
#7286
0V
#7293
0Y
#7750
0K
#7834
0O
0T
0Z
#8478
0U
#8615
0[
#8616
0]
#9069
0_
#9254
0W
#9372
0^
#9390
0b
0g
#9392
0i
#9949
0h
#9992
1`
0k
#10073
0f
0e
#10432
0j
#10433
0c
#10551
1a
#10566
0l
#10630
0)
#11106
1,
#11171
0+
#11422
0*
#11606
0-
#12015
0.
#14098
13
#14165
14
#14186
10
#14316
0/
#14369
11
#14378
12
#14714
15
#20000
1!
06
#20995
1?
#27481
1h
1c
#27484
0a
#27489
1l
#27490
1j
1d
#27942
1>
#27953
1\
#27975
1Y
#27984
1A
#28065
1f
1e
#30027
0`
#30064
1_
#30065
1k
#30066
1g
#30068
1i
#30072
1b
#30095
0e
#30586
1a
#30625
0h
#30639
0l
#30987
1`
#31068
0f
#31108
0j
#31115
0c
#31223
04
#31234
00
#31546
0a
#31630
03
#31637
05
#32453
0,
#34774
13
#34787
15
#34841
14
#34868
10
#35311
1/
#40000
1"
0!
16
#40985
1@
#40995
0?
#47481
1h
1c
#47484
1a
#47489
1l
#47490
1j
0d
#47942
0>
#47953
0\
#47975
0Y
#48065
1f
1e
#48153
1B
#49791
0b
#49795
0`
#50064
0_
#50066
0g
#50074
0i
#50354
0a
#50625
0h
#50834
0c
#50987
1`
0k
#51068
0f
0e
#51114
0j
#51223
04
#51234
00
#51546
1a
#51561
0l
#51630
03
#51637
05
#52156
1+
#54587
10
#54774
13
#54847
14
#55311
0/
#55709
15
#60000
1!
06
#60995
1?
#67483
0B
#67484
1Q
#67975
1Y
#67983
1X
#68542
0Y
#71486
0+
#71625
1)
#80000
1#
0"
0!
16
#80985
0@
#80995
0?
#81005
1F
#87483
1B
#87484
0Q
#87622
0A
#87975
1Y
#87983
0X
#88039
1\
#88153
0B
#88291
1V
#88542
0Y
#89877
1b
#89882
1k
#90181
1f
1e
#90456
1l
#90920
1c
#91625
0)
#92091
1,
#94477
01
#94486
02
#94604
05
#94673
00
#100000
1!
06
#100995
1?
#107481
1h
0c
#107484
0a
#107489
0l
#107490
1j
1d
#107942
1>
#107975
1Y
#107984
1A
#108065
0f
0e
#109819
1f
#110027
0`
#110064
1_
#110066
1g
#110068
1i
#110586
1a
#110625
0h
#110987
1`
#111068
0f
#111108
0j
#111223
04
#111234
10
#111546
0a
#111630
03
#111637
15
#112361
11
#112453
0,
#114774
13
#114841
14
#115311
1/
#115373
12
#120000
1"
0!
16
#120985
1@
#120995
0?
#127481
1h
1c
#127484
1a
#127489
1l
#127490
1j
0d
#127942
0>
#127975
0Y
#128038
0\
#128065
1f
1e
#128153
1B
#129876
0i
#130033
0`
#130064
0_
#130066
0g
#130072
0b
#130592
0a
#130625
0h
#130916
0j
#130987
1`
0k
#131068
0f
0e
#131115
0c
#131223
04
#131234
00
#131546
1a
#131561
0l
#131630
03
#131637
05
#132156
1+
#134649
14
#134774
13
#134868
10
#135311
0/
#135709
15
#140000
1!
06
#140995
1?
#147483
0B
#147484
1Q
#147953
1\
#147975
1Y
#147983
1X
#148542
0Y
#149791
1b
#149796
1k
#150095
1f
1e
#150370
1l
#150834
1c
#151486
0+
#151625
1)
#154391
01
#154400
02
#154518
05
#154587
00
#160000
1$
0#
0"
0!
16
#160985
0@
1L
#160995
0?
#161005
0F
#167483
1B
#167484
0Q
#167622
0A
#167719
1=
#167975
1Y
#168039
0\
#168153
0B
#168291
0V
#169463
1U
#169819
0f
#169879
1g
#170033
0`
#170069
0k
#170181
0e
#170239
1W
#170438
1h
#170592
0a
#170643
0l
#171625
0)
#172091
1,
#174124
12
#174357
1/
#174477
11
#174587
03
#174791
15
#180000
1!
06
#180995
1?
#187481
0h
0c
#187484
1a
#187489
1l
#187490
1j
1d
#187942
1>
#187953
1\
#187983
0X
#187984
1A
#188065
1f
1e
#190064
1_
#190065
1k
#190068
1i
#190095
0e
#190639
0l
#190987
1`
#191068
0f
#191108
0j
#191223
04
#191234
10
#191249
0/
#191546
0a
#191630
13
#191637
05
#192453
0,
#194787
15
#194841
14
#195311
1/
#200000
1"
0!
16
#200985
1@
#200995
0?
#207481
1h
1c
#207484
1a
#207489
1l
#207490
1j
0d
#207942
0>
#207953
0\
#207975
0Y
#208065
1f
1e
#208153
1B
#209791
0b
#209795
0`
#210064
0_
#210066
0g
#210074
0i
#210354
0a
#210625
0h
#210834
0c
#210987
1`
0k
#211068
0f
0e
#211114
0j
#211223
04
#211234
00
#211546
1a
#211561
0l
#211630
03
#211637
05
#212156
1+
#214587
10
#214774
13
#214847
14
#215311
0/
#215709
15
#220000
1!
06
#220995
1?
#227483
0B
#227484
1Q
#227975
1Y
#227983
1X
#230033
0`
#230072
1b
1g
#230592
0a
#230631
1h
#231115
1c
#231486
0+
#231625
1)
#234357
1/
#234780
03
#234868
00
#240000
1#
0"
0!
16
#240985
0@
#240995
0?
#241005
1F
#247483
1B
#247484
0Q
#247622
0A
#248039
1\
#248153
0B
#248291
1V
#249879
0g
#250181
1e
#250438
0h
#251625
0)
#252091
1,
#254477
01
#254587
13
#260000
1!
06
#260995
1?
#267481
1h
0c
#267484
1a
#267489
1l
#267490
1j
1d
#267942
1>
#267983
0X
#267984
1A
#268065
1f
0e
#270064
1_
#270065
1k
#270066
1g
#270068
1i
#270625
0h
#270639
0l
#270987
1`
#271068
0f
#271108
0j
#271223
04
#271234
10
#271249
0/
#271546
0a
#271630
03
#271637
05
#272361
11
#272453
0,
#274774
13
#274787
15
#274841
14
#275311
1/
#280000
1"
0!
16
#280985
1@
#280995
0?
#287481
1h
1c
#287484
1a
#287489
1l
#287490
1j
0d
#287942
0>
#287975
0Y
#288038
0\
#288065
1f
1e
#288153
1B
#289876
0i
#290033
0`
#290064
0_
#290066
0g
#290072
0b
#290592
0a
#290625
0h
#290916
0j
#290987
1`
0k
#291068
0f
0e
#291115
0c
#291223
04
#291234
00
#291546
1a
#291561
0l
#291630
03
#291637
05
#292156
1+
#294649
14
#294774
13
#294868
10
#295311
0/
#295709
15
#300000
1!
06
#300995
1?
#307483
0B
#307484
1Q
#307953
1\
#307975
1Y
#307983
1X
#309791
1b
#310033
0`
#310095
1e
#310592
0a
#310834
1c
#311486
0+
#311625
1)
#314357
1/
#314391
01
#314587
00
#320000
1%
0$
0#
0"
0!
16
#320975
1M
#320985
0@
0L
#320995
0?
#321005
0F
#327483
1B
#327484
0Q
#327507
1N
#327618
1R
#327622
0A
#327983
0X
#328039
0\
#328153
0B
#328245
0N
#328281
0=
#328291
0V
#328542
0Y
#329879
1g
#330025
0U
#330181
0e
#330438
1h
#330600
1`
#330639
0b
0g
#330801
0W
#331159
1a
#331198
0h
#331625
0)
#331682
0c
#332091
1,
#332216
1-
#334477
11
#334924
0/
#335435
10
#340000
1!
06
#340995
1?
#347481
1h
1c
#347484
0a
#347489
1l
#347490
1j
1d
#347904
0R
#347942
1>
#347953
1\
#347975
1Y
#347984
1A
#348065
1f
1e
#350027
0`
#350064
1_
#350065
1k
#350066
1g
#350068
1i
#350072
1b
#350095
0e
#350586
1a
#350625
0h
#350639
0l
#350987
1`
#351068
0f
#351108
0j
#351115
0c
#351223
04
#351234
00
#351546
0a
#351630
03
#351637
05
#352453
0,
#352502
0-
#354774
13
#354787
15
#354841
14
#354868
10
#355311
1/
#360000
1"
0!
16
#360985
1@
#360995
0?
#367481
1h
1c
#367484
1a
#367489
1l
#367490
1j
0d
#367942
0>
#367953
0\
#367975
0Y
#368065
1f
1e
#368153
1B
#369791
0b
#369795
0`
#370064
0_
#370066
0g
#370074
0i
#370354
0a
#370625
0h
#370834
0c
#370987
1`
0k
#371068
0f
0e
#371114
0j
#371223
04
#371234
00
#371546
1a
#371561
0l
#371630
03
#371637
05
#372156
1+
#374587
10
#374774
13
#374847
14
#375311
0/
#375709
15
#380000
1!
06
#380995
1?
#387483
0B
#387484
1Q
#387975
1Y
#387983
1X
#388542
0Y
#391486
0+
#391625
1)
#400000
1#
0"
0!
16
#400985
0@
#400995
0?
#401005
1F
#407483
1B
#407484
0Q
#407618
1R
#407622
0A
#407975
1Y
#407983
0X
#408039
1\
#408153
0B
#408245
1N
#408281
1=
#408291
1V
#408542
0Y
#409547
1O
1T
#409877
1b
#409882
1k
#410025
1U
#410181
1f
1e
#410328
1[
#410329
1]
#410456
1l
#410920
1c
#411051
0]
#411625
0)
#412091
1,
#412216
1-
#414477
01
#414486
02
#414604
05
#414673
00
#420000
1!
06
#420995
1?
#427481
1h
0c
#427484
0a
#427489
0l
#427490
1j
1d
#427904
0R
#427942
1P
#427953
0\
#427984
1A
#428065
0f
0e
#429791
0b
#429796
0k
#430095
1f
1e
#430370
1l
#430834
1c
#431223
04
#431234
10
#431249
1/
#431630
03
#432417
1*
#432453
0,
#432502
0-
#434587
00
#440000
1"
0!
16
#440985
1@
#440995
0?
#447481
0h
0c
#447484
1a
#447489
0l
#447490
0j
0d
#447942
0P
#447953
1\
#448036
0[
#448065
0f
0e
#448153
1B
#448618
0\
#451223
14
#451234
10
#451249
0/
#451630
13
#451637
15
#452156
1+
#452361
11
#452370
12
#452417
0*
#460000
1!
06
#460995
1?
#467483
0B
#467484
1Q
#467953
1\
#467983
1X
#469791
1b
#469796
1k
#470095
1f
1e
#470370
1l
#470834
1c
#471486
0+
#471625
1)
#474391
01
#474400
02
#474518
05
#474587
00
#480000
1$
0#
0"
0!
16
#480985
0@
1L
#480995
0?
#481005
0F
#487483
1B
#487484
0Q
#487618
1R
#487622
0A
#487975
1Y
#488036
1[
#488039
0\
#488153
0B
#488291
0V
#488875
1W
#489819
0f
#489879
1g
#490033
0`
#490069
0k
#490181
0e
#490438
1h
#490592
0a
#490643
0l
#491625
0)
#492091
1,
#492216
1-
#494124
12
#494357
1/
#494477
11
#494587
03
#494791
15
#500000
1!
06
#500995
1?
#507481
0h
0c
#507484
1a
#507489
1l
#507490
1j
1d
#507904
0R
#507942
1P
#507983
0X
#507984
1A
#508065
1f
1e
#508542
0Y
#510600
1`
#510639
0b
0g
#511159
0a
#511198
1h
#511223
04
#511234
10
#511249
0/
#511630
13
#511637
05
#511682
1c
#512361
01
#512370
02
#512417
1*
#512453
0,
#512502
0-
#514924
1/
#515347
03
#515435
00
#520000
1"
0!
16
#520985
1@
#520995
0?
#527481
0h
0c
#527484
1a
#527489
0l
#527490
0j
0d
#527942
0P
#528036
0[
#528038
1\
#528065
0f
0e
#528153
1B
#528618
0\
#531223
14
#531234
10
#531249
0/
#531630
13
#531637
15
#532156
1+
#532361
11
#532370
12
#532417
0*
#540000
1!
06
#540995
1?
#547483
0B
#547484
1Q
#547983
1X
#548542
1Y
#550600
0`
#550639
1b
1g
#551159
0a
#551198
1h
#551486
0+
#551625
1)
#551682
1c
#554924
1/
#555347
03
#555435
00
#560000
1#
0"
0!
16
#560985
0@
#560995
0?
#561005
1F
#567483
1B
#567484
0Q
#567618
1R
#567622
0A
#568036
1[
#568039
1\
#568153
0B
#568281
0=
#568291
1V
#568875
0W
#569879
0g
#570025
0U
#570181
1e
#570438
0h
#570801
1W
#571051
1]
#571625
0)
#572091
1,
#572216
1-
#574477
01
#574587
13
#580000
1!
06
#580995
1?
#587481
1h
0c
#587484
1a
#587489
1l
#587490
1j
1d
#587904
0R
#587942
1P
#587953
0\
#587983
0X
#587984
1A
#588065
1f
0e
#588542
0Y
#589793
1g
#590095
1e
#590352
0h
#590600
1`
#590639
0b
0g
#591159
0a
#591198
1h
#591223
04
#591234
10
#591249
0/
#591630
03
#591637
05
#591682
1c
#592370
02
#592417
1*
#592453
0,
#592502
0-
#594924
1/
#595435
00
#600000
1"
0!
16
#600985
1@
#600995
0?
#607481
0h
0c
#607484
1a
#607489
0l
#607490
0j
0d
#607942
0P
#607953
1\
#608036
0[
#608065
0f
0e
#608153
1B
#608618
0\
#611223
14
#611234
10
#611249
0/
#611630
13
#611637
15
#612156
1+
#612361
11
#612370
12
#612417
0*
#620000
1!
06
#620995
1?
#627483
0B
#627484
1Q
#627953
1\
#627983
1X
#628542
1Y
#629791
1b
#629796
1k
#630095
1e
#630370
1l
#630600
0`
#630636
0k
#630834
1c
#631159
0a
#631210
0l
#631486
0+
#631625
1)
#634391
01
#634587
00
#634924
1/
#640000
1&
0%
0$
0#
0"
0!
16
#640975
0M
#640985
0@
0L
#640995
0?
#641005
0F
#641025
1C
#647483
1B
#647484
0Q
#647507
0N
#647622
0A
#647695
1E
#647983
0X
#648005
1[
#648039
0\
#648153
0B
#648542
0Y
#648809
0O
0T
#649590
0[
#649591
0]
#649843
0W
#649879
1g
#650181
0e
#650438
1h
#650600
1`
#650639
0b
0g
#651159
1a
#651198
0h
#651625
0)
#651682
0c
#652091
1,
#654477
11
#654924
0/
#655435
10
#660000
1!
06
#660995
1?
#667481
1h
1c
#667484
0a
#667489
1l
#667490
1j
1d
#667942
1>
#667953
1\
#667975
1Y
#667984
1A
#668065
1f
1e
#670027
0`
#670064
1_
#670065
1k
#670066
1g
#670068
1i
#670072
1b
#670095
0e
#670586
1a
#670625
0h
#670639
0l
#670987
1`
#671068
0f
#671108
0j
#671115
0c
#671223
04
#671234
00
#671546
0a
#671630
03
#671637
05
#672453
0,
#674774
13
#674787
15
#674841
14
#674868
10
#675311
1/
#680000
1"
0!
16
#680985
1@
#680995
0?
#687481
1h
1c
#687484
1a
#687489
1l
#687490
1j
0d
#687942
0>
#687953
0\
#687975
0Y
#688036
1[
#688065
1f
1e
#688153
1B
#688618
1\
#689819
0f
#690033
0`
#690064
0_
#690065
0k
#690066
0g
#690072
0b
#690592
0a
#690625
0h
#690639
0l
#690987
1`
1k
#690991
1b
#690992
0i
#691068
1f
#691115
0c
#691223
04
#691234
00
#691546
1a
#691561
1l
#691630
03
#691637
05
#692032
0j
#692034
1c
#692156
1+
#692361
01
#694774
13
#695311
0/
#695373
02
#695765
14
#700000
1!
06
#700995
1?
#707483
0B
#707484
1Q
#707975
1Y
#707983
1X
#708542
0Y
#711486
0+
#711625
1)
#720000
1#
0"
0!
16
#720985
0@
#720995
0?
#721005
1F
#727483
1B
#727484
0Q
#727622
0A
#727975
1Y
#727983
0X
#728036
0[
#728153
0B
#728291
1G
0V
#728542
0Y
#729300
1U
#730076
1W
#731625
0)
#732091
1,
#740000
1!
06
#740995
1?
#747481
1h
0c
#747484
0a
#747489
0l
#747490
1j
1d
#747942
1>
#747975
1Y
#747984
1A
#748065
0f
0e
#749819
1f
#750027
0`
#750064
1_
#750066
1g
#750068
1i
#750586
1a
#750625
0h
#750987
1`
#751068
0f
#751108
0j
#751223
04
#751234
10
#751546
0a
#751630
03
#751637
15
#752361
11
#752453
0,
#754774
13
#754841
14
#755311
1/
#755373
12
#760000
1"
0!
16
#760985
1@
#760995
0?
#767481
1h
1c
#767484
1a
#767489
1l
#767490
1j
0d
#767942
0>
#767975
0Y
#768036
1[
#768038
0\
#768065
1f
1e
#768153
1B
#768618
1\
#769819
0f
#770033
0`
#770064
0_
#770065
0k
#770066
0g
#770072
0b
#770592
0a
#770625
0h
#770639
0l
#770987
1`
1k
#770991
1b
#770992
0i
#771068
1f
#771115
0c
#771223
04
#771234
00
#771546
1a
#771561
1l
#771630
03
#771637
05
#772032
0j
#772034
1c
#772156
1+
#772361
01
#774774
13
#775311
0/
#775373
02
#775765
14
#780000
1!
06
#780995
1?
#787483
0B
#787484
1Q
#787953
0\
#787975
1Y
#787983
1X
#789796
0k
#790033
0`
#790072
1g
#790095
0f
0e
#790370
0l
#790592
0a
#790631
1h
#791486
0+
#791625
1)
#794357
1/
#794391
11
#794400
12
#794518
15
#794780
03
#800000
1$
0#
0"
0!
16
#800985
0@
1L
#800995
0?
#801005
0F
#807483
1B
#807484
0Q
#807622
0A
#807719
1=
#808036
0[
#808153
0B
#808291
0G
1V
#811625
0)
#812091
1,
#820000
1!
06
#820995
1?
#827481
0h
0c
#827484
1a
#827489
1l
#827490
1j
1d
#827942
1>
#827953
1\
#827983
0X
#827984
1A
#828065
1f
1e
#830064
1_
#830065
1k
#830068
1i
#830095
0e
#830639
0l
#830987
1`
#831068
0f
#831108
0j
#831223
04
#831234
10
#831249
0/
#831546
0a
#831630
13
#831637
05
#832453
0,
#834787
15
#834841
14
#835311
1/
#840000
1"
0!
16
#840985
1@
#840995
0?
#847481
1h
1c
#847484
1a
#847489
1l
#847490
1j
0d
#847942
0>
#847953
0\
#847975
0Y
#848036
1[
#848065
1f
1e
#848153
1B
#848618
1\
#849819
0f
#850033
0`
#850064
0_
#850065
0k
#850066
0g
#850072
0b
#850592
0a
#850625
0h
#850639
0l
#850987
1`
1k
#850991
1b
#850992
0i
#851068
1f
#851115
0c
#851223
04
#851234
00
#851546
1a
#851561
1l
#851630
03
#851637
05
#852032
0j
#852034
1c
#852156
1+
#852361
01
#854774
13
#855311
0/
#855373
02
#855765
14
#860000
1!
06
#860995
1?
#867483
0B
#867484
1Q
#867975
1Y
#867983
1X
#869819
0f
#870033
0`
#870069
0k
#870592
0a
#870643
0l
#871486
0+
#871625
1)
#874124
12
#874357
1/
#874791
15
#880000
1#
0"
0!
16
#880985
0@
#880995
0?
#881005
1F
#887483
1B
#887484
0Q
#887622
0A
#888036
0[
#888153
0B
#888291
1G
0V
#889300
0U
#889301
1K
#890076
0W
#890372
1^
#891625
0)
#892091
1,
#900000
1!
06
#900995
1?
#907481
1h
0c
#907484
1a
#907489
1l
#907490
1j
1d
#907942
1>
#907975
0Y
#907983
0X
#907984
1A
#908065
1f
0e
#908542
1Y
#910064
1_
#910065
1k
#910066
1g
#910068
1i
#910625
0h
#910639
0l
#910987
1`
#911068
0f
#911108
0j
#911223
04
#911234
10
#911249
0/
#911546
0a
#911630
03
#911637
05
#912361
11
#912453
0,
#914774
13
#914787
15
#914841
14
#915311
1/
#920000
1"
0!
16
#920985
1@
#920995
0?
#927481
1h
1c
#927484
1a
#927489
1l
#927490
1j
0d
#927942
0>
#927975
0Y
#928036
1[
#928038
0\
#928065
1f
1e
#928153
1B
#928618
1\
#929819
0f
#930033
0`
#930064
0_
#930065
0k
#930066
0g
#930072
0b
#930592
0a
#930625
0h
#930639
0l
#930987
1`
1k
#930991
1b
#930992
0i
#931068
1f
#931115
0c
#931223
04
#931234
00
#931546
1a
#931561
1l
#931630
03
#931637
05
#932032
0j
#932034
1c
#932156
1+
#932361
01
#934774
13
#935311
0/
#935373
02
#935765
14
#940000
1!
06
#940995
1?
#947482
1_
#947483
0B
#947484
1Q
#947953
0\
#947975
1Y
#947983
1X
#948405
0`
0k
#948409
0b
#948410
1i
#948486
0f
#948542
0Y
#948964
0a
#948979
0l
#949450
1j
#949452
0c
#949791
0i
#949796
1k
#950095
1f
#950370
1l
#950831
0j
#951486
0+
#951625
1)
#952729
1/
#953205
10
#960000
1%
0$
0#
0"
0!
16
#960975
1M
#960985
0@
0L
#960995
0?
#961005
0F
#967482
0_
#967483
1B
#967484
0Q
#967507
1N
#967618
1R
#967622
0A
#967975
1Y
#967983
0X
#968036
0[
#968153
0B
#968245
0N
#968281
0=
#968291
0G
1V
#968405
1`
0k
#968486
0f
0e
#968542
0Y
#968964
1a
#968979
0l
#969300
1U
#969301
0K
#970025
0U
#970076
1W
#970372
0^
#970801
0W
#971625
0)
#972091
1,
#972216
1-
#972729
0/
#972782
11
#972791
12
#973127
15
#980000
1!
06
#980995
1?
#987481
1h
1c
#987484
0a
#987489
1l
#987490
1j
1d
#987904
0R
#987942
1>
#987953
1\
#987975
1Y
#987984
1A
#988065
1f
1e
#990027
0`
#990064
1_
#990065
1k
#990066
1g
#990068
1i
#990072
1b
#990095
0e
#990586
1a
#990625
0h
#990639
0l
#990987
1`
#991068
0f
#991108
0j
#991115
0c
#991223
04
#991234
00
#991546
0a
#991630
03
#991637
05
#992453
0,
#992502
0-
#994774
13
#994787
15
#994841
14
#994868
10
#995311
1/
#1000000
1"
0!
16
#1000985
1@
#1000995
0?
#1007481
1h
1c
#1007484
1a
#1007489
1l
#1007490
1j
0d
#1007942
0>
#1007953
0\
#1007975
0Y
#1008036
1[
#1008065
1f
1e
#1008153
1B
#1008618
1\
#1009819
0f
#1010033
0`
#1010064
0_
#1010065
0k
#1010066
0g
#1010072
0b
#1010592
0a
#1010625
0h
#1010639
0l
#1010987
1`
1k
#1010991
1b
#1010992
0i
#1011068
1f
#1011115
0c
#1011223
04
#1011234
00
#1011546
1a
#1011561
1l
#1011630
03
#1011637
05
#1012032
0j
#1012034
1c
#1012156
1+
#1012361
01
#1014774
13
#1015311
0/
#1015373
02
#1015765
14
#1020000
1!
06
#1020995
1?
#1027483
0B
#1027484
1Q
#1027975
1Y
#1027983
1X
#1028542
0Y
#1031486
0+
#1031625
1)
#1040000
1#
0"
0!
16
#1040985
0@
#1040995
0?
#1041005
1F
#1047483
1B
#1047484
0Q
#1047618
1R
#1047622
0A
#1047975
1Y
#1047983
0X
#1048036
0[
#1048153
0B
#1048245
1N
#1048281
1=
#1048291
1G
0V
#1048542
0Y
#1049300
1U
#1049547
1O
1T
#1050025
0U
#1050029
1K
#1050076
1W
#1050328
1[
#1050788
1Z
#1050797
0O
#1050801
0W
#1051051
1]
#1051100
1^
#1051385
0[
#1051625
0)
#1051807
0^
#1052091
1,
#1052216
1-
#1060000
1!
06
#1060995
1?
#1067481
1h
0c
#1067484
0a
#1067489
0l
#1067490
1j
1d
#1067904
0R
#1067942
1>
#1067975
1Y
#1067984
1A
#1068065
0f
0e
#1069819
1f
#1070027
0`
#1070064
1_
#1070066
1g
#1070068
1i
#1070586
1a
#1070625
0h
#1070987
1`
#1071068
0f
#1071108
0j
#1071223
04
#1071234
10
#1071546
0a
#1071630
03
#1071637
15
#1072361
11
#1072453
0,
#1072502
0-
#1074774
13
#1074841
14
#1075311
1/
#1075373
12
#1080000
1"
0!
16
#1080985
1@
#1080995
0?
#1087481
1h
1c
#1087484
1a
#1087489
1l
#1087490
1j
0d
#1087942
0>
#1087975
0Y
#1088036
1[
#1088038
0\
#1088065
1f
1e
#1088153
1B
#1088618
1\
#1089819
0f
#1090033
0`
#1090064
0_
#1090065
0k
#1090066
0g
#1090072
0b
#1090592
0a
#1090625
0h
#1090639
0l
#1090987
1`
1k
#1090991
1b
#1090992
0i
#1091068
1f
#1091115
0c
#1091223
04
#1091234
00
#1091546
1a
#1091561
1l
#1091630
03
#1091637
05
#1092032
0j
#1092034
1c
#1092156
1+
#1092361
01
#1094774
13
#1095311
0/
#1095373
02
#1095765
14
#1100000
1!
06
#1100995
1?
#1107483
0B
#1107484
1Q
#1107953
0\
#1107975
1Y
#1107983
1X
#1108542
0Y
#1109791
0b
#1109796
0k
#1110095
0f
0e
#1110370
0l
#1110834
0c
#1111486
0+
#1111625
1)
#1114391
11
#1114400
12
#1114518
15
#1114587
10
#1120000
1$
0#
0"
0!
16
#1120985
0@
1L
#1120995
0?
#1121005
0F
#1127483
1B
#1127484
0Q
#1127618
1R
#1127622
0A
#1127975
1Y
#1128036
0[
#1128153
0B
#1128291
0G
1V
#1129300
1U
#1129301
0K
#1130033
0`
#1130060
0Z
#1130069
1O
#1130072
1b
1g
#1130076
1W
#1130368
0]
#1130372
1^
#1130592
0a
#1130631
1h
#1130657
1[
#1131084
0^
#1131115
1c
#1131405
0W
#1131625
0)
#1132091
1,
#1132216
1-
#1134357
1/
#1134780
03
#1134868
00
#1140000
1!
06
#1140995
1?
#1147481
0h
0c
#1147484
1a
#1147489
1l
#1147490
1j
1d
#1147904
0R
#1147942
1P
#1147975
0Y
#1147983
0X
#1147984
1A
#1148065
1f
1e
#1150033
1`
#1150072
0b
0g
#1150592
0a
#1150631
1h
#1151115
1c
#1151223
04
#1151234
10
#1151630
13
#1151637
05
#1152361
01
#1152370
02
#1152417
1*
#1152453
0,
#1152502
0-
#1154780
03
#1154868
00
#1160000
1"
0!
16
#1160985
1@
#1160995
0?
#1167481
0h
0c
#1167484
1a
#1167489
0l
#1167490
0j
0d
#1167942
0P
#1168038
1\
#1168065
0f
0e
#1168153
1B
#1169876
1b
#1169881
1k
#1170180
1f
1e
#1170455
1l
#1170919
1c
#1171223
14
#1171234
10
#1171249
0/
#1171630
13
#1172156
1+
#1172417
0*
#1174672
00
#1180000
1!
06
#1180995
1?
#1187483
0B
#1187484
1Q
#1187983
1X
#1191486
0+
#1191625
1)
#1200000
1#
0"
0!
16
#1200985
0@
#1200995
0?
#1201005
1F
#1207483
1B
#1207484
0Q
#1207618
1R
#1207622
0A
#1207975
1Y
#1208153
0B
#1208281
0=
#1208291
1G
0V
#1208875
1W
#1209300
0U
#1209301
1K
#1209819
0f
#1210025
1U
#1210029
0K
#1210033
0`
#1210060
1Z
#1210069
0k
0O
#1210076
0W
#1210326
1]
#1210372
1^
#1210592
0a
#1210643
0l
#1210657
0[
#1210788
0Z
#1210797
1O
#1210801
1W
#1211096
0]
#1211385
1[
#1211625
0)
#1211852
0^
#1212091
1,
#1212216
1-
#1214124
12
#1214357
1/
#1214791
15
#1220000
1!
06
#1220995
1?
#1227481
1h
0c
#1227484
1a
#1227489
1l
#1227490
1j
1d
#1227904
0R
#1227942
1P
#1227953
0\
#1227983
0X
#1227984
1A
#1228065
1f
0e
#1228542
0Y
#1229793
1g
#1230095
1e
#1230352
0h
#1230600
1`
#1230639
0b
0g
#1231159
0a
#1231198
1h
#1231223
04
#1231234
10
#1231249
0/
#1231630
03
#1231637
05
#1231682
1c
#1232370
02
#1232417
1*
#1232453
0,
#1232502
0-
#1234924
1/
#1235435
00
#1240000
1"
0!
16
#1240985
1@
#1240995
0?
#1247481
0h
0c
#1247484
1a
#1247489
0l
#1247490
0j
0d
#1247942
0P
#1247953
1\
#1248065
0f
0e
#1248153
1B
#1249791
1b
#1249796
1k
#1250095
1f
1e
#1250370
1l
#1250834
1c
#1251223
14
#1251234
10
#1251249
0/
